0
SECTION
2
HEADER
9
$INSUNITS
70
4
9
$ACADVER
1
AC1014
9
$HANDSEED
5
FFFF
0
ENDSEC
0
SECTION
2
TABLES
0
TABLE
2
VPORT
5
8
100
AcDbSymbolTable
0
ENDTAB
0
TABLE
2
LTYPE
5
5
100
AcDbSymbolTable
0
LTYPE
5
14
100
AcDbSymbolTableRecord
100
AcDbLinetypeTableRecord
2
BYBLOCK
70
0
0
LTYPE
5
15
100
AcDbSymbolTableRecord
100
AcDbLinetypeTableRecord
2
BYLAYER
70
0
0
ENDTAB
0
TABLE
2
LAYER
5
2
100
AcDbSymbolTable
70
2
0
LAYER
5
50
100
AcDbSymbolTableRecord
100
AcDbLayerTableRecord
2
0
70
0
6
CONTINUOUS
0
ENDTAB
0
TABLE
2
STYLE
5
3
100
AcDbSymbolTable
70
1
0
STYLE
5
11
100
AcDbSymbolTableRecord
100
AcDbTextStyleTableRecord
2
STANDARD
70
0
0
ENDTAB
0
TABLE
2
VIEW
5
6
100
AcDbSymbolTable
70
0
0
ENDTAB
0
TABLE
2
UCS
5
7
100
AcDbSymbolTable
70
0
0
ENDTAB
0
TABLE
2
APPID
5
9
100
AcDbSymbolTable
70
2
0
APPID
5
12
100
AcDbSymbolTableRecord
100
AcDbRegAppTableRecord
2
ACAD
70
0
0
ENDTAB
0
TABLE
2
DIMSTYLE
5
A
100
AcDbSymbolTable
70
1
0
ENDTAB
0
TABLE
2
BLOCK_RECORD
5
1
100
AcDbSymbolTable
70
1
0
BLOCK_RECORD
5
1F
100
AcDbSymbolTableRecord
100
AcDbBlockTableRecord
2
*MODEL_SPACE
0
BLOCK_RECORD
5
1B
100
AcDbSymbolTableRecord
100
AcDbBlockTableRecord
2
*PAPER_SPACE
0
ENDTAB
0
ENDSEC
0
SECTION
2
BLOCKS
0
BLOCK
5
20
100
AcDbEntity
100
AcDbBlockBegin
2
*MODEL_SPACE
0
ENDBLK
5
21
100
AcDbEntity
100
AcDbBlockEnd
0
BLOCK
5
1C
100
AcDbEntity
100
AcDbBlockBegin
2
*PAPER_SPACE
0
ENDBLK
5
1D
100
AcDbEntity
100
AcDbBlockEnd
0
ENDSEC
0
SECTION
2
ENTITIES
0
ARC
5
100
100
AcDbEntity
8
0
100
AcDbCircle
10
1.1102230246251565e-14
20
-1.1102230246251565e-15
30
0
40
17.000000000000011
210
0
220
0
230
1
100
AcDbArc
50
164.06814445014641
51
231.93185554985354
0
LINE
5
101
100
AcDbEntity
8
0
100
AcDbLine
10
-10.482170357652043
20
-13.383725363035545
30
0
11
-9.8521159190579315
21
-13.560274229377606
31
0
0
LINE
5
102
100
AcDbEntity
8
0
100
AcDbLine
10
-9.8521159190579315
20
-13.560274229377606
30
0
11
-9.4895104403718573
21
-14.104935008785876
31
0
0
ARC
5
103
100
AcDbEntity
8
0
100
AcDbCircle
10
1.1102230246251565e-14
20
-1.1102230246251565e-15
30
0
40
17.000000000000004
210
0
220
0
230
1
100
AcDbArc
50
236.06814445014643
51
303.93185554985342
0
LINE
5
104
100
AcDbEntity
8
0
100
AcDbLine
10
9.4895104403718484
20
-14.104935008785899
30
0
11
9.8521159190579315
21
-13.560274229377589
31
0
0
LINE
5
105
100
AcDbEntity
8
0
100
AcDbLine
10
9.8521159190579315
20
-13.560274229377589
30
0
11
10.48217035765205
21
-13.383725363035541
31
0
0
ARC
5
106
100
AcDbEntity
8
0
100
AcDbCircle
10
1.1102230246251565e-14
20
-1.1102230246251565e-15
30
0
40
16.999999999999996
210
-0
220
0
230
1
100
AcDbArc
50
-51.931855549853594
51
15.931855549853458
0
LINE
5
107
100
AcDbEntity
8
0
100
AcDbLine
10
16.347010346398861
20
4.6663961184975422
30
0
11
15.941058418139649
21
5.1795638588529549
31
0
0
LINE
5
108
100
AcDbEntity
8
0
100
AcDbLine
10
15.941058418139649
20
5.1795638588529549
30
0
11
15.967847997267464
21
5.8333378383358925
31
0
0
ARC
5
109
100
AcDbEntity
8
0
100
AcDbCircle
10
1.1102230246251565e-14
20
-1.1102230246251565e-15
30
0
40
16.999999999999986
210
0
220
-0
230
1
100
AcDbArc
50
20.068144450146466
51
64.394021762399376
0
LINE
5
110
100
AcDbEntity
8
0
100
AcDbLine
10
7.3470573410657947
20
15.330386440892184
30
0
11
7.3470573410656907
21
30.074495845033002
31
0
0
ARC
5
111
100
AcDbEntity
8
0
100
AcDbCircle
10
-363.62500000002103
20
82.262840301788998
30
0
40
374.62500000002075
210
-0
220
0
230
1
100
AcDbArc
50
-8.007818300503013
51
5.706288144436173
0
ARC
5
112
100
AcDbEntity
8
0
100
AcDbCircle
10
6.6559954953127942
20
119.26284030178884
30
0
40
2.5000000000000213
210
0
220
-0
230
1
100
AcDbArc
50
5.706288144435149
51
90
0
ARC
5
113
100
AcDbEntity
8
0
100
AcDbCircle
10
363.62500000002029
20
82.262840301789524
30
0
40
374.62500000002024
210
0
220
0
230
1
100
AcDbArc
50
174.29371185556391
51
188.00781830050289
0
LINE
5
114
100
AcDbEntity
8
0
100
AcDbLine
10
-7.3470573410660478
20
30.074495845034161
30
0
11
-7.347057341065879
21
15.330386440892148
31
0
0
ARC
5
115
100
AcDbEntity
8
0
100
AcDbCircle
10
1.1102230246251565e-14
20
-1.1102230246251565e-15
30
0
40
17
210
0
220
0
230
1
100
AcDbArc
50
115.60597823760101
51
159.93185554985365
0
LINE
5
116
100
AcDbEntity
8
0
100
AcDbLine
10
-15.967847997267469
20
5.8333378383358632
30
0
11
-15.941058418139658
21
5.1795638588529567
31
0
0
LINE
5
117
100
AcDbEntity
8
0
100
AcDbLine
10
-15.941058418139658
20
5.1795638588529567
30
0
11
-16.347010346398839
21
4.666396118497584
31
0
0
LINE
5
118
100
AcDbEntity
8
0
100
AcDbLine
10
-9.1436071546702369
20
119.51141269009922
30
0
11
-7.6813418256115451
21
125.72894000163382
31
0
0
LINE
5
119
100
AcDbEntity
8
0
100
AcDbLine
10
-6.7079008470459502
20
126.50000140416232
30
0
11
-5.3390996982325127
21
126.50000140416232
31
0
0
LINE
5
120
100
AcDbEntity
8
0
100
AcDbLine
10
-4.3542919452202913
20
125.67364958182924
30
0
11
-3.6668230832401107
21
121.77482040416231
31
0
0
LINE
5
121
100
AcDbEntity
8
0
100
AcDbLine
10
-4.5000000670552254
20
126.50000140416236
30
0
11
0.29807495457389477
21
126.50000140416236
31
0
0
LINE
5
122
100
AcDbEntity
8
0
100
AcDbLine
10
0
20
129.00000192224979
30
0
11
-1.4210854715202004e-13
21
118.5000017657876
31
0
0
LINE
5
123
100
AcDbEntity
8
0
100
AcDbLine
10
6.7079008470458801
20
126.50000188499672
30
0
11
5.3390996982324417
21
126.50000188499675
31
0
0
LINE
5
124
100
AcDbEntity
8
0
100
AcDbLine
10
9.1436071546699793
20
119.51141269009896
30
0
11
7.6813418256114518
21
125.7289400016336
31
0
0
LINE
5
125
100
AcDbEntity
8
0
100
AcDbLine
10
4.354291945220206
20
125.6736500626637
30
0
11
3.6668230832399153
21
121.77482040416221
31
0
0
LINE
5
126
100
AcDbEntity
8
0
100
AcDbLine
10
-3.6668230832401107
20
121.77482040416231
30
0
11
3.6668230832399153
21
121.77482040416221
31
0
0
ARC
5
127
100
AcDbEntity
8
0
100
AcDbCircle
10
-6.7079008470459502
20
125.50000140416232
30
0
40
0.99999999999999645
210
0
220
-0
230
1
100
AcDbArc
50
90
51
166.76541087795769
0
ARC
5
128
100
AcDbEntity
8
0
100
AcDbCircle
10
-5.3390996982325127
20
125.5000014041623
30
0
40
1.0000000000000147
210
0
220
-0
230
1
100
AcDbArc
50
10.000000000000048
51
90
0
ARC
5
129
100
AcDbEntity
8
0
100
AcDbCircle
10
5.3390996982324239
20
125.50000188499673
30
0
40
1.0000000000000142
210
0
220
-0
230
1
100
AcDbArc
50
89.999999999998991
51
169.99999999999838
0
ARC
5
130
100
AcDbEntity
8
0
100
AcDbCircle
10
6.7079008470458401
20
125.50000188499669
30
0
40
1.0000000000000151
210
0
220
-0
230
1
100
AcDbArc
50
13.234562303948094
51
89.999999999997698
0
ENDSEC
0
SECTION
2
OBJECTS
0
DICTIONARY
5
C
100
AcDbDictionary
3
ACAD_GROUP
350
D
3
ACAD_MLINESTYLE
350
17
0
DICTIONARY
5
D
100
AcDbDictionary
0
DICTIONARY
5
1A
330
C
100
AcDbDictionary
0
DICTIONARY
5
17
100
AcDbDictionary
0
ENDSEC
0
EOF
