EESchema Schematic File Version 4
EELAYER 30 0
EELAYER END
$Descr A4 11693 8268
encoding utf-8
Sheet 1 1
Title ""
Date ""
Rev ""
Comp ""
Comment1 ""
Comment2 ""
Comment3 ""
Comment4 ""
$EndDescr
$Comp
L RF_Module:E73-2G4M04S-52832 U1
U 1 1 5E048CA4
P 9250 3150
F 0 "U1" H 9250 1461 50  0000 C CNN
F 1 "E73-2G4M04S-52832" H 9250 1600 50  0000 C CNN
F 2 "RF_Module:E73-2G4M04S" H 9250 3600 50  0001 C CNN
F 3 "http://www.cdebyte.com/en/downpdf.aspx?id=243" H 9250 3600 50  0001 C CNN
	1    9250 3150
	1    0    0    -1  
$EndComp
Wire Notes Line
	11000 1000 1000 1000
Wire Notes Line
	11000 1000 11000 6000
Text Notes 5500 2600 0    50   ~ 0
NFC Reader
Text Notes 1400 1150 0    50   ~ 0
MPU6050
Text Notes 7750 1100 0    50   ~ 0
CORE
Text Notes 5300 3750 0    50   ~ 0
MOTOR/SOUND
Text Notes 1050 3750 0    50   ~ 0
CHARGE
$Comp
L Battery_Management:MCP73831-2-OT U2
U 1 1 5E0B27DC
P 2050 4950
F 0 "U2" H 2050 5431 50  0000 C CNN
F 1 "MCP73831-2-OT" H 2050 5340 50  0000 C CNN
F 2 "Package_TO_SOT_SMD:SOT-23-5" H 2100 4700 50  0001 L CIN
F 3 "http://ww1.microchip.com/downloads/en/DeviceDoc/20001984g.pdf" H 1900 4900 50  0001 C CNN
	1    2050 4950
	1    0    0    -1  
$EndComp
Text Notes 5650 1150 0    50   ~ 0
BATTERY LEVEL\n
Text GLabel 6250 1800 0    50   Input ~ 0
BAT_LEVEL
$Comp
L Device:R_US R14
U 1 1 5E0B92A5
P 6450 1600
F 0 "R14" H 6518 1646 50  0000 L CNN
F 1 "100k" H 6518 1555 50  0000 L CNN
F 2 "Resistor_SMD:R_0603_1608Metric_Pad1.05x0.95mm_HandSolder" V 6490 1590 50  0001 C CNN
F 3 "~" H 6450 1600 50  0001 C CNN
	1    6450 1600
	1    0    0    -1  
$EndComp
$Comp
L Device:R_US R15
U 1 1 5E0BA497
P 6450 2000
F 0 "R15" H 6518 2046 50  0000 L CNN
F 1 "100k" H 6518 1955 50  0000 L CNN
F 2 "Resistor_SMD:R_0603_1608Metric_Pad1.05x0.95mm_HandSolder" V 6490 1990 50  0001 C CNN
F 3 "~" H 6450 2000 50  0001 C CNN
	1    6450 2000
	1    0    0    -1  
$EndComp
$Comp
L power:GND #PWR0101
U 1 1 5E0BB4E2
P 6450 2250
F 0 "#PWR0101" H 6450 2000 50  0001 C CNN
F 1 "GND" H 6455 2077 50  0000 C CNN
F 2 "" H 6450 2250 50  0001 C CNN
F 3 "" H 6450 2250 50  0001 C CNN
	1    6450 2250
	1    0    0    -1  
$EndComp
$Comp
L Device:C C10
U 1 1 5E0BBD41
P 6750 1800
F 0 "C10" V 7002 1800 50  0000 C CNN
F 1 "0.01uf" V 6911 1800 50  0000 C CNN
F 2 "Capacitor_SMD:C_0603_1608Metric_Pad1.05x0.95mm_HandSolder" H 6788 1650 50  0001 C CNN
F 3 "~" H 6750 1800 50  0001 C CNN
	1    6750 1800
	0    -1   -1   0   
$EndComp
Wire Wire Line
	6450 1750 6450 1800
Wire Wire Line
	6600 1800 6450 1800
Connection ~ 6450 1800
Wire Wire Line
	6450 1800 6450 1850
Wire Wire Line
	6900 1800 6900 2200
Wire Wire Line
	6900 2200 6450 2200
Wire Wire Line
	6450 2200 6450 2150
Wire Wire Line
	6450 2250 6450 2200
Connection ~ 6450 2200
Wire Wire Line
	6250 1800 6450 1800
Text GLabel 6250 1450 0    50   Input ~ 0
VBAT
Wire Wire Line
	6450 1450 6250 1450
$Comp
L power:VBUS #PWR0104
U 1 1 5E0C11EE
P 2050 4250
F 0 "#PWR0104" H 2050 4100 50  0001 C CNN
F 1 "VBUS" H 2065 4423 50  0000 C CNN
F 2 "" H 2050 4250 50  0001 C CNN
F 3 "" H 2050 4250 50  0001 C CNN
	1    2050 4250
	1    0    0    -1  
$EndComp
Wire Wire Line
	2050 4250 2050 4650
$Comp
L power:GND #PWR0106
U 1 1 5E0D14F8
P 3550 5550
F 0 "#PWR0106" H 3550 5300 50  0001 C CNN
F 1 "GND" H 3555 5377 50  0000 C CNN
F 2 "" H 3550 5550 50  0001 C CNN
F 3 "" H 3550 5550 50  0001 C CNN
	1    3550 5550
	1    0    0    -1  
$EndComp
$Comp
L Device:R_US R1
U 1 1 5E0D1C3B
P 1350 5050
F 0 "R1" V 1555 5050 50  0000 C CNN
F 1 "5k" V 1464 5050 50  0000 C CNN
F 2 "Resistor_SMD:R_0603_1608Metric_Pad1.05x0.95mm_HandSolder" V 1390 5040 50  0001 C CNN
F 3 "~" H 1350 5050 50  0001 C CNN
	1    1350 5050
	0    -1   -1   0   
$EndComp
$Comp
L power:GND #PWR0107
U 1 1 5E0D21EF
P 1100 5550
F 0 "#PWR0107" H 1100 5300 50  0001 C CNN
F 1 "GND" H 1105 5377 50  0000 C CNN
F 2 "" H 1100 5550 50  0001 C CNN
F 3 "" H 1100 5550 50  0001 C CNN
	1    1100 5550
	1    0    0    -1  
$EndComp
Wire Wire Line
	1200 5050 1100 5050
Wire Wire Line
	1100 5050 1100 5500
Wire Wire Line
	1500 5050 1650 5050
Wire Wire Line
	2050 5250 2050 5500
Wire Wire Line
	2050 5500 1100 5500
Connection ~ 1100 5500
Wire Wire Line
	1100 5500 1100 5550
Text GLabel 2700 4100 0    50   Input ~ 0
VBAT
Wire Wire Line
	2450 4850 2700 4850
Wire Wire Line
	2700 4850 2700 4100
Wire Notes Line
	1000 7700 6500 7700
Wire Notes Line
	1000 1000 1000 7700
$Comp
L Device:R_US R3
U 1 1 5E0FB7A2
P 1800 2050
F 0 "R3" H 1868 2096 50  0000 L CNN
F 1 "4.7k" H 1868 2005 50  0000 L CNN
F 2 "Resistor_SMD:R_0603_1608Metric_Pad1.05x0.95mm_HandSolder" V 1840 2040 50  0001 C CNN
F 3 "~" H 1800 2050 50  0001 C CNN
	1    1800 2050
	1    0    0    -1  
$EndComp
$Comp
L Device:R_US R2
U 1 1 5E0FBD7A
P 1600 2050
F 0 "R2" H 1668 2096 50  0000 L CNN
F 1 "4.7k" H 1668 2005 50  0000 L CNN
F 2 "Resistor_SMD:R_0603_1608Metric_Pad1.05x0.95mm_HandSolder" V 1640 2040 50  0001 C CNN
F 3 "~" H 1600 2050 50  0001 C CNN
	1    1600 2050
	1    0    0    -1  
$EndComp
$Comp
L Device:C C3
U 1 1 5E0FC6C9
P 3300 1600
F 0 "C3" V 3552 1600 50  0000 C CNN
F 1 "0.1uf" V 3461 1600 50  0000 C CNN
F 2 "Capacitor_SMD:C_0603_1608Metric_Pad1.05x0.95mm_HandSolder" H 3338 1450 50  0001 C CNN
F 3 "~" H 3300 1600 50  0001 C CNN
	1    3300 1600
	0    -1   -1   0   
$EndComp
$Comp
L mpu-6050-sensor_motion-gowandv2-rescue:MPU-6050-Sensor_Motion-gowandv2-rescue U3
U 1 1 5E0FD653
P 2650 2600
F 0 "U3" H 2650 3481 50  0000 C CNN
F 1 "MPU-6050" H 2650 3390 50  0000 C CNN
F 2 "fp:MPU6050-SMT-PI" H 2650 1800 50  0001 C CNN
F 3 "" H 2650 2450 50  0001 C CNN
	1    2650 2600
	1    0    0    -1  
$EndComp
$Comp
L Device:C C5
U 1 1 5E0FE9D8
P 3750 2800
F 0 "C5" V 4002 2800 50  0000 C CNN
F 1 "2200pf" V 3911 2800 50  0000 C CNN
F 2 "Capacitor_SMD:C_0603_1608Metric_Pad1.05x0.95mm_HandSolder" H 3788 2650 50  0001 C CNN
F 3 "~" H 3750 2800 50  0001 C CNN
	1    3750 2800
	0    -1   -1   0   
$EndComp
$Comp
L Device:C C4
U 1 1 5E0FED80
P 3500 3150
F 0 "C4" H 3615 3104 50  0000 L CNN
F 1 "0.1uf" H 3615 3195 50  0000 L CNN
F 2 "Capacitor_SMD:C_0603_1608Metric_Pad1.05x0.95mm_HandSolder" H 3538 3000 50  0001 C CNN
F 3 "~" H 3500 3150 50  0001 C CNN
	1    3500 3150
	-1   0    0    1   
$EndComp
Text GLabel 2550 1400 1    50   Input ~ 0
3.3V
Wire Wire Line
	2550 1600 2550 1900
Wire Wire Line
	2750 1900 2750 1600
Wire Wire Line
	2750 1600 2550 1600
Connection ~ 2550 1600
Wire Wire Line
	3150 1600 2750 1600
Connection ~ 2750 1600
$Comp
L power:GND #PWR0110
U 1 1 5E102CF4
P 3650 1850
F 0 "#PWR0110" H 3650 1600 50  0001 C CNN
F 1 "GND" H 3655 1677 50  0000 C CNN
F 2 "" H 3650 1850 50  0001 C CNN
F 3 "" H 3650 1850 50  0001 C CNN
	1    3650 1850
	1    0    0    -1  
$EndComp
Wire Wire Line
	3650 1850 3650 1600
Wire Wire Line
	3650 1600 3450 1600
Wire Wire Line
	1800 1600 1800 1900
Wire Wire Line
	1800 1600 2050 1600
Wire Wire Line
	1800 1600 1600 1600
Wire Wire Line
	1600 1600 1600 1900
Connection ~ 1800 1600
Connection ~ 2050 1600
Wire Wire Line
	2050 1600 2550 1600
$Comp
L power:GND #PWR0111
U 1 1 5E1038CD
P 2050 1900
F 0 "#PWR0111" H 2050 1650 50  0001 C CNN
F 1 "GND" H 2055 1727 50  0000 C CNN
F 2 "" H 2050 1900 50  0001 C CNN
F 3 "" H 2050 1900 50  0001 C CNN
	1    2050 1900
	1    0    0    -1  
$EndComp
Text GLabel 1300 2300 0    50   Input ~ 0
MPU_SDA
Text GLabel 1300 2400 0    50   Input ~ 0
MPU_SCL
Wire Wire Line
	1950 2300 1800 2300
Wire Wire Line
	1300 2400 1600 2400
Wire Wire Line
	1800 2200 1800 2300
Connection ~ 1800 2300
Wire Wire Line
	1800 2300 1300 2300
Wire Wire Line
	1600 2200 1600 2400
Connection ~ 1600 2400
Wire Wire Line
	1600 2400 1950 2400
$Comp
L power:GND #PWR0112
U 1 1 5E1041D0
P 3900 3350
F 0 "#PWR0112" H 3900 3100 50  0001 C CNN
F 1 "GND" H 3905 3177 50  0000 C CNN
F 2 "" H 3900 3350 50  0001 C CNN
F 3 "" H 3900 3350 50  0001 C CNN
	1    3900 3350
	1    0    0    -1  
$EndComp
Wire Wire Line
	3350 2800 3600 2800
Wire Wire Line
	3900 2800 3900 3300
Wire Wire Line
	3350 2900 3500 2900
Wire Wire Line
	3500 2900 3500 3000
Connection ~ 3900 3300
Wire Wire Line
	3900 3300 3900 3350
Wire Wire Line
	2400 3200 2400 3300
Wire Wire Line
	2400 3300 2650 3300
$Comp
L power:GND #PWR0113
U 1 1 5E104FDD
P 1650 3300
F 0 "#PWR0113" H 1650 3050 50  0001 C CNN
F 1 "GND" H 1655 3127 50  0000 C CNN
F 2 "" H 1650 3300 50  0001 C CNN
F 3 "" H 1650 3300 50  0001 C CNN
	1    1650 3300
	1    0    0    -1  
$EndComp
Wire Wire Line
	1950 2800 1650 2800
Wire Wire Line
	1650 2800 1650 2900
Wire Wire Line
	1950 2900 1650 2900
Connection ~ 1650 2900
Wire Wire Line
	1650 2900 1650 3300
Wire Wire Line
	1950 2500 1650 2500
Wire Wire Line
	1650 2500 1650 2800
Connection ~ 1650 2800
Text GLabel 3550 2300 2    50   Input ~ 0
MPU_INT
Wire Wire Line
	3550 2300 3350 2300
Wire Wire Line
	2550 1400 2550 1600
$Comp
L power:GND #PWR0117
U 1 1 5E11041F
P 5750 4750
F 0 "#PWR0117" H 5750 4500 50  0001 C CNN
F 1 "GND" H 5755 4577 50  0000 C CNN
F 2 "" H 5750 4750 50  0001 C CNN
F 3 "" H 5750 4750 50  0001 C CNN
	1    5750 4750
	1    0    0    -1  
$EndComp
$Comp
L Device:R_US R8
U 1 1 5E1107E5
P 4950 4350
F 0 "R8" V 4745 4350 50  0000 C CNN
F 1 "220r" V 4836 4350 50  0000 C CNN
F 2 "Resistor_SMD:R_0603_1608Metric_Pad1.05x0.95mm_HandSolder" V 4990 4340 50  0001 C CNN
F 3 "~" H 4950 4350 50  0001 C CNN
	1    4950 4350
	0    1    1    0   
$EndComp
Text GLabel 6600 4000 1    50   Input ~ 0
3.3V
Wire Wire Line
	6600 4100 6500 4100
Wire Wire Line
	6600 4000 6600 4100
Wire Wire Line
	5750 4150 5750 4100
Wire Wire Line
	5750 4100 5950 4100
Wire Wire Line
	5750 4550 5750 4650
Text GLabel 4800 4350 0    50   Input ~ 0
IN_MOTOR
$Comp
L Device:Speaker LS1
U 1 1 5E0A198B
P 6750 5050
F 0 "LS1" H 6920 5046 50  0000 L CNN
F 1 "Speaker" H 6920 4955 50  0000 L CNN
F 2 "fp:speaker" H 6750 4850 50  0001 C CNN
F 3 "~" H 6740 5000 50  0001 C CNN
	1    6750 5050
	1    0    0    -1  
$EndComp
Wire Notes Line
	1000 6350 11000 6350
Text GLabel 6250 4950 1    50   Input ~ 0
3.3V
Wire Wire Line
	6250 4950 6250 5050
$Comp
L power:GND #PWR0118
U 1 1 5E122A60
P 5750 5650
F 0 "#PWR0118" H 5750 5400 50  0001 C CNN
F 1 "GND" H 5755 5477 50  0000 C CNN
F 2 "" H 5750 5650 50  0001 C CNN
F 3 "" H 5750 5650 50  0001 C CNN
	1    5750 5650
	1    0    0    -1  
$EndComp
Wire Wire Line
	5750 5550 5750 5600
$Comp
L Device:R_US R10
U 1 1 5E122E59
P 5050 5350
F 0 "R10" V 4845 5350 50  0000 C CNN
F 1 "220r" V 4936 5350 50  0000 C CNN
F 2 "Resistor_SMD:R_0603_1608Metric_Pad1.05x0.95mm_HandSolder" V 5090 5340 50  0001 C CNN
F 3 "~" H 5050 5350 50  0001 C CNN
	1    5050 5350
	0    1    1    0   
$EndComp
Text GLabel 4900 5350 0    50   Input ~ 0
IN_SPEAKER
Text GLabel 5500 2900 0    50   Input ~ 0
NFC_CLK
Text GLabel 5500 3000 0    50   Input ~ 0
NFC_MISO
Text GLabel 5500 3100 0    50   Input ~ 0
NFC_MOSI
Text GLabel 5500 3200 0    50   Input ~ 0
NFC_CS
Text GLabel 4750 3500 0    50   Input ~ 0
NFC_3.3V
Text GLabel 5500 3400 0    50   Input ~ 0
GND
$Comp
L Connector_Generic:Conn_01x07 J5
U 1 1 5E1276E7
P 5700 3200
F 0 "J5" H 5780 3242 50  0000 L CNN
F 1 "NFC_HEADER" H 5780 3151 50  0000 L CNN
F 2 "Connector_Hirose:Hirose_DF13C_CL535-0407-6-51_1x07-1MP_P1.25mm_Vertical" H 5700 3200 50  0001 C CNN
F 3 "~" H 5700 3200 50  0001 C CNN
	1    5700 3200
	1    0    0    -1  
$EndComp
Text GLabel 4750 3300 0    50   Input ~ 0
NFC_RTS
$Comp
L Device:R_US R9
U 1 1 5E128F4B
P 5000 3400
F 0 "R9" H 5068 3446 50  0000 L CNN
F 1 "10k" H 5068 3355 50  0000 L CNN
F 2 "Resistor_SMD:R_0603_1608Metric_Pad1.05x0.95mm_HandSolder" V 5040 3390 50  0001 C CNN
F 3 "~" H 5000 3400 50  0001 C CNN
	1    5000 3400
	0    1    1    0   
$EndComp
Wire Wire Line
	3500 3300 3900 3300
Wire Wire Line
	3500 3300 2650 3300
Connection ~ 3500 3300
Connection ~ 2650 3300
$Comp
L Device:R_US R13
U 1 1 5E179C36
P 5500 4650
F 0 "R13" V 5295 4650 50  0000 C CNN
F 1 "10k" V 5386 4650 50  0000 C CNN
F 2 "Resistor_SMD:R_0603_1608Metric_Pad1.05x0.95mm_HandSolder" V 5540 4640 50  0001 C CNN
F 3 "~" H 5500 4650 50  0001 C CNN
	1    5500 4650
	0    1    1    0   
$EndComp
Connection ~ 5950 4100
Connection ~ 6600 4100
Wire Wire Line
	5950 4350 6100 4350
Wire Wire Line
	5950 4100 5950 4350
Wire Wire Line
	6400 4350 6600 4350
Wire Wire Line
	6600 4100 6600 4350
$Comp
L Device:C C8
U 1 1 5E17ECED
P 6250 4600
F 0 "C8" V 6502 4600 50  0000 C CNN
F 1 "0.1uf" V 6411 4600 50  0000 C CNN
F 2 "Capacitor_SMD:C_0603_1608Metric_Pad1.05x0.95mm_HandSolder" H 6288 4450 50  0001 C CNN
F 3 "~" H 6250 4600 50  0001 C CNN
	1    6250 4600
	0    -1   -1   0   
$EndComp
Wire Wire Line
	5950 4350 5950 4600
Wire Wire Line
	5950 4600 6100 4600
Connection ~ 5950 4350
Wire Wire Line
	6400 4600 6600 4600
Wire Wire Line
	6600 4600 6600 4350
Connection ~ 6600 4350
Wire Wire Line
	6550 5050 6250 5050
Wire Wire Line
	5750 5050 5750 5150
Wire Wire Line
	6050 5050 6250 5050
Connection ~ 6250 5050
$Comp
L Device:R_US R11
U 1 1 5E183909
P 5450 5600
F 0 "R11" V 5245 5600 50  0000 C CNN
F 1 "10k" V 5336 5600 50  0000 C CNN
F 2 "Resistor_SMD:R_0603_1608Metric_Pad1.05x0.95mm_HandSolder" V 5490 5590 50  0001 C CNN
F 3 "~" H 5450 5600 50  0001 C CNN
	1    5450 5600
	0    1    1    0   
$EndComp
Wire Wire Line
	5200 5350 5300 5350
Wire Wire Line
	5300 5600 5300 5350
Connection ~ 5300 5350
Wire Wire Line
	5300 5350 5450 5350
Wire Wire Line
	5600 5600 5750 5600
Connection ~ 5750 5600
Wire Wire Line
	5750 5600 5750 5650
Wire Wire Line
	5650 4650 5750 4650
Connection ~ 5750 4650
Wire Wire Line
	5750 4650 5750 4750
Wire Wire Line
	5350 4650 5350 4350
Wire Wire Line
	5350 4350 5100 4350
Wire Wire Line
	5350 4350 5450 4350
Connection ~ 5350 4350
Wire Wire Line
	5750 5150 6550 5150
Wire Notes Line
	4550 5900 4550 7700
Text Notes 4600 6000 0    50   ~ 0
LIGHT
Wire Notes Line
	7600 5850 7600 1000
Text Notes 6900 2650 0    50   ~ 0
BUTTON\n
$Comp
L Switch:SW_Push SW1
U 1 1 5E0E166E
P 7400 3150
F 0 "SW1" H 7400 3435 50  0000 C CNN
F 1 "SW_BUTTON" H 7400 3344 50  0000 C CNN
F 2 "Button_Switch_SMD:SW_SPST_B3U-1000P" H 7400 3350 50  0001 C CNN
F 3 "~" H 7400 3350 50  0001 C CNN
	1    7400 3150
	1    0    0    -1  
$EndComp
$Comp
L Device:R_US R16
U 1 1 5E0E1B95
P 7750 3150
F 0 "R16" H 7818 3196 50  0000 L CNN
F 1 "220r" H 7818 3105 50  0000 L CNN
F 2 "Resistor_SMD:R_0603_1608Metric_Pad1.05x0.95mm_HandSolder" V 7790 3140 50  0001 C CNN
F 3 "~" H 7750 3150 50  0001 C CNN
	1    7750 3150
	0    1    1    0   
$EndComp
$Comp
L Device:C C9
U 1 1 5E0E240F
P 7400 3350
F 0 "C9" V 7652 3350 50  0000 C CNN
F 1 "1uf" V 7561 3350 50  0000 C CNN
F 2 "Capacitor_SMD:C_0603_1608Metric_Pad1.05x0.95mm_HandSolder" H 7438 3200 50  0001 C CNN
F 3 "~" H 7400 3350 50  0001 C CNN
	1    7400 3350
	0    -1   -1   0   
$EndComp
$Comp
L power:GND #PWR0120
U 1 1 5E0E28A9
P 7150 3500
F 0 "#PWR0120" H 7150 3250 50  0001 C CNN
F 1 "GND" H 7155 3327 50  0000 C CNN
F 2 "" H 7150 3500 50  0001 C CNN
F 3 "" H 7150 3500 50  0001 C CNN
	1    7150 3500
	1    0    0    -1  
$EndComp
Wire Wire Line
	7200 3150 7150 3150
Wire Wire Line
	7150 3150 7150 3350
Wire Wire Line
	7250 3350 7150 3350
Connection ~ 7150 3350
Wire Wire Line
	7150 3350 7150 3500
Wire Wire Line
	7550 3350 7600 3350
Connection ~ 7600 3150
Wire Wire Line
	7600 3150 7600 3350
Text GLabel 7900 3150 2    50   Input ~ 0
BUTTON
Text Notes 4250 1100 0    50   ~ 0
UART\n
$Comp
L Connector_Generic:Conn_01x02 J2
U 1 1 5E0F8500
P 4800 1250
F 0 "J2" H 4880 1242 50  0000 L CNN
F 1 "UART_HEADER" H 4880 1151 50  0000 L CNN
F 2 "Connector_PinHeader_2.54mm:PinHeader_1x02_P2.54mm_Vertical" H 4800 1250 50  0001 C CNN
F 3 "~" H 4800 1250 50  0001 C CNN
	1    4800 1250
	1    0    0    -1  
$EndComp
Text GLabel 4600 1350 0    50   Input ~ 0
NRF_TX
Text GLabel 10150 2050 2    50   Input ~ 0
MPU_INT
Text GLabel 10150 1850 2    50   Input ~ 0
MPU_SDA
Text GLabel 10150 1950 2    50   Input ~ 0
MPU_SCL
Text GLabel 10150 1750 2    50   Input ~ 0
BAT_LEVEL
Text GLabel 10150 4450 2    50   Input ~ 0
NFC_MISO
Text GLabel 10150 4350 2    50   Input ~ 0
NFC_MOSI
Text GLabel 10150 4550 2    50   Input ~ 0
NFC_CS
Text GLabel 10150 4150 2    50   Input ~ 0
NFC_RTS
$Comp
L Transistor_FET:Si2319CDS Q5
U 1 1 5E0FA4C1
P 10200 6150
F 0 "Q5" H 10406 6196 50  0000 L CNN
F 1 "Si2319CDS" H 10406 6105 50  0000 L CNN
F 2 "Package_TO_SOT_SMD:SOT-23" H 10400 6075 50  0001 L CIN
F 3 "http://www.vishay.com/docs/66709/si2319cd.pdf" H 10200 6150 50  0001 L CNN
	1    10200 6150
	1    0    0    1   
$EndComp
$Comp
L Device:R_US R19
U 1 1 5E0FD614
P 9850 6150
F 0 "R19" H 9918 6196 50  0000 L CNN
F 1 "100r" H 9918 6105 50  0000 L CNN
F 2 "Resistor_SMD:R_0603_1608Metric_Pad1.05x0.95mm_HandSolder" V 9890 6140 50  0001 C CNN
F 3 "~" H 9850 6150 50  0001 C CNN
	1    9850 6150
	0    1    1    0   
$EndComp
Text GLabel 9600 6150 0    50   Input ~ 0
NFC_3.3V_CONTROL
$Comp
L Device:R_US R18
U 1 1 5E10A19D
P 9850 5900
F 0 "R18" H 9918 5946 50  0000 L CNN
F 1 "10k" H 9918 5855 50  0000 L CNN
F 2 "Resistor_SMD:R_0603_1608Metric_Pad1.05x0.95mm_HandSolder" V 9890 5890 50  0001 C CNN
F 3 "~" H 9850 5900 50  0001 C CNN
	1    9850 5900
	0    1    1    0   
$EndComp
Wire Wire Line
	10300 5950 10300 5900
Wire Wire Line
	10000 5900 10300 5900
Connection ~ 10300 5900
Wire Wire Line
	10300 5900 10300 5850
Wire Wire Line
	9700 5900 9700 6150
Wire Wire Line
	9600 6150 9700 6150
Connection ~ 9700 6150
Wire Wire Line
	4750 3300 4850 3300
Wire Wire Line
	4850 3400 4850 3300
Connection ~ 4850 3300
Wire Wire Line
	4850 3300 5500 3300
Wire Wire Line
	4750 3500 5150 3500
Wire Wire Line
	5150 3400 5150 3500
Connection ~ 5150 3500
Wire Wire Line
	5150 3500 5500 3500
Text GLabel 10150 2150 2    50   Input ~ 0
NRF_TX
Text GLabel 10150 2350 2    50   Input ~ 0
NRF_RX
Text GLabel 10150 2650 2    50   Input ~ 0
BUTTON
Text GLabel 10150 2750 2    50   Input ~ 0
IN_SPEAKER
Text GLabel 10150 3250 2    50   Input ~ 0
DIN_WS2812B
$Comp
L Connector_Generic:Conn_01x04 J4
U 1 1 5E0D2623
P 4850 2550
F 0 "J4" H 4930 2542 50  0000 L CNN
F 1 "Jlink" H 4930 2451 50  0000 L CNN
F 2 "Connector_PinHeader_2.54mm:PinHeader_1x04_P2.54mm_Vertical" H 4850 2550 50  0001 C CNN
F 3 "~" H 4850 2550 50  0001 C CNN
	1    4850 2550
	1    0    0    -1  
$EndComp
$Comp
L power:GND #PWR0121
U 1 1 5E0D4B38
P 4650 2750
F 0 "#PWR0121" H 4650 2500 50  0001 C CNN
F 1 "GND" H 4655 2577 50  0000 C CNN
F 2 "" H 4650 2750 50  0001 C CNN
F 3 "" H 4650 2750 50  0001 C CNN
	1    4650 2750
	1    0    0    -1  
$EndComp
Wire Wire Line
	4650 2350 4650 2450
Text GLabel 8350 3750 0    50   Input ~ 0
SWDCLK
Text GLabel 8350 3850 0    50   Input ~ 0
SWDIO
Text GLabel 4650 2650 0    50   Input ~ 0
SWDIO
Text GLabel 4650 2550 0    50   Input ~ 0
SWDCLK
Text Notes 4150 2350 0    50   ~ 0
Download
Text GLabel 8350 3650 0    50   Input ~ 0
RESET
$Comp
L power:GND #PWR0124
U 1 1 5E0F08FC
P 9250 4750
F 0 "#PWR0124" H 9250 4500 50  0001 C CNN
F 1 "GND" H 9255 4577 50  0000 C CNN
F 2 "" H 9250 4750 50  0001 C CNN
F 3 "" H 9250 4750 50  0001 C CNN
	1    9250 4750
	1    0    0    -1  
$EndComp
$Comp
L Device:C C12
U 1 1 5E0F1613
P 9750 1400
F 0 "C12" V 10002 1400 50  0000 C CNN
F 1 "10uf" V 9911 1400 50  0000 C CNN
F 2 "Capacitor_SMD:C_0603_1608Metric_Pad1.05x0.95mm_HandSolder" H 9788 1250 50  0001 C CNN
F 3 "~" H 9750 1400 50  0001 C CNN
	1    9750 1400
	0    -1   -1   0   
$EndComp
Text GLabel 9250 1350 1    50   Input ~ 0
3.3V
$Comp
L power:GND #PWR0126
U 1 1 5E1081B2
P 6350 6100
F 0 "#PWR0126" H 6350 5850 50  0001 C CNN
F 1 "GND" H 6355 5927 50  0000 C CNN
F 2 "" H 6350 6100 50  0001 C CNN
F 3 "" H 6350 6100 50  0001 C CNN
	1    6350 6100
	1    0    0    -1  
$EndComp
$Comp
L Connector_Generic:Conn_01x02 J6
U 1 1 5E10867C
P 6900 6050
F 0 "J6" H 6980 6042 50  0000 L CNN
F 1 "BATTERY CONNECTER" H 6980 5951 50  0000 L CNN
F 2 "Connector_Molex:Molex_PicoBlade_53261-0271_1x02-1MP_P1.25mm_Horizontal" H 6900 6050 50  0001 C CNN
F 3 "~" H 6900 6050 50  0001 C CNN
	1    6900 6050
	1    0    0    -1  
$EndComp
Text Notes 7250 5900 0    50   ~ 0
BATTERY CONNECTER\n
$Comp
L Switch:SW_Push SW3
U 1 1 5E111A51
P 7450 4100
F 0 "SW3" H 7450 4385 50  0000 C CNN
F 1 "SW_DFU" H 7450 4294 50  0000 C CNN
F 2 "Button_Switch_SMD:SW_SPST_B3U-1000P" H 7450 4300 50  0001 C CNN
F 3 "~" H 7450 4300 50  0001 C CNN
	1    7450 4100
	1    0    0    -1  
$EndComp
Text GLabel 10150 3950 2    50   Input ~ 0
DFU
Text GLabel 7650 4100 2    50   Input ~ 0
DFU
$Comp
L power:GND #PWR0127
U 1 1 5E11942C
P 7250 4100
F 0 "#PWR0127" H 7250 3850 50  0001 C CNN
F 1 "GND" H 7255 3927 50  0000 C CNN
F 2 "" H 7250 4100 50  0001 C CNN
F 3 "" H 7250 4100 50  0001 C CNN
	1    7250 4100
	1    0    0    -1  
$EndComp
$Comp
L power:GND #PWR0128
U 1 1 5E12A03B
P 9900 1400
F 0 "#PWR0128" H 9900 1150 50  0001 C CNN
F 1 "GND" H 9905 1227 50  0000 C CNN
F 2 "" H 9900 1400 50  0001 C CNN
F 3 "" H 9900 1400 50  0001 C CNN
	1    9900 1400
	1    0    0    -1  
$EndComp
Wire Wire Line
	9250 1550 9250 1400
Wire Wire Line
	9600 1400 9250 1400
Connection ~ 9250 1400
Wire Wire Line
	9250 1400 9250 1350
$Comp
L Diode:1N4148WS D6
U 1 1 5E16F428
P 6250 4350
F 0 "D6" H 6250 4133 50  0000 C CNN
F 1 "1N4148WS" H 6250 4224 50  0000 C CNN
F 2 "Diode_SMD:D_SOD-323" H 6250 4175 50  0001 C CNN
F 3 "https://www.vishay.com/docs/85751/1n4148ws.pdf" H 6250 4350 50  0001 C CNN
	1    6250 4350
	-1   0    0    1   
$EndComp
$Comp
L Diode:1N4148WS D5
U 1 1 5E16FFF9
P 5900 5050
F 0 "D5" H 5900 4833 50  0000 C CNN
F 1 "1N4148WS" H 5900 4924 50  0000 C CNN
F 2 "Diode_SMD:D_SOD-323" H 5900 4875 50  0001 C CNN
F 3 "https://www.vishay.com/docs/85751/1n4148ws.pdf" H 5900 5050 50  0001 C CNN
	1    5900 5050
	-1   0    0    1   
$EndComp
Text Notes 8750 5850 0    50   ~ 0
ON/OFF NFC\n
Text GLabel 5850 7150 0    50   Input ~ 0
V_IN_MCP
Text GLabel 6700 6150 0    50   Input ~ 0
VBAT
Text GLabel 2950 6750 1    50   Input ~ 0
V_IN
Text GLabel 3100 6750 1    50   Input ~ 0
V_IN_MCP
Wire Wire Line
	2800 6950 3100 6950
Wire Wire Line
	2950 6750 2650 6750
Wire Wire Line
	1550 6500 1550 6700
Wire Wire Line
	1550 6700 1400 6700
Wire Wire Line
	1100 7450 1100 7300
Wire Wire Line
	4100 7150 4100 7450
$Comp
L Connector:USB_A J1
U 1 1 5E10615F
P 1100 6900
F 0 "J1" H 1157 7367 50  0000 C CNN
F 1 "USB_A" H 1157 7276 50  0000 C CNN
F 2 "Connector_USB:USB_Micro-B_Molex-105017-0001" H 1250 6850 50  0001 C CNN
F 3 " ~" H 1250 6850 50  0001 C CNN
	1    1100 6900
	1    0    0    -1  
$EndComp
$Comp
L power:GND #PWR0115
U 1 1 5E108DA6
P 1100 7450
F 0 "#PWR0115" H 1100 7200 50  0001 C CNN
F 1 "GND" H 1105 7277 50  0000 C CNN
F 2 "" H 1100 7450 50  0001 C CNN
F 3 "" H 1100 7450 50  0001 C CNN
	1    1100 7450
	1    0    0    -1  
$EndComp
$Comp
L power:VBUS #PWR0114
U 1 1 5E108317
P 1550 6500
F 0 "#PWR0114" H 1550 6350 50  0001 C CNN
F 1 "VBUS" H 1565 6673 50  0000 C CNN
F 2 "" H 1550 6500 50  0001 C CNN
F 3 "" H 1550 6500 50  0001 C CNN
	1    1550 6500
	1    0    0    -1  
$EndComp
Wire Wire Line
	2350 6500 1950 6500
Wire Wire Line
	2400 6750 2450 6750
Wire Wire Line
	2450 6750 2650 6750
Wire Wire Line
	1950 6500 1950 6750
Wire Wire Line
	2450 6750 2450 6950
Wire Wire Line
	2650 6700 2650 6750
Wire Wire Line
	2650 7350 2650 7250
Wire Wire Line
	4100 6750 4300 6750
Wire Wire Line
	1950 6750 1950 6950
Wire Wire Line
	1950 6250 1950 6500
Wire Wire Line
	2450 7250 2450 7450
Wire Wire Line
	4300 6750 4300 6500
Wire Wire Line
	4300 6800 4300 6750
Wire Wire Line
	2650 6250 2650 6300
Wire Wire Line
	4300 7150 4100 7150
Wire Wire Line
	1950 7250 1950 7450
Wire Wire Line
	2800 7350 2650 7350
Wire Wire Line
	2100 6750 1950 6750
Wire Wire Line
	2800 6950 2800 7350
Wire Wire Line
	4300 7100 4300 7150
Wire Wire Line
	2650 6950 2650 6750
Text GLabel 4300 6500 1    50   Input ~ 0
3.3V
Connection ~ 2450 6750
Connection ~ 1950 6750
Connection ~ 4300 6750
Connection ~ 2650 6750
Connection ~ 1950 6500
Connection ~ 4100 7150
Text Notes 1050 6050 0    50   ~ 0
POWER
$Comp
L Device:R_US R4
U 1 1 5E0F0ED0
P 1950 7100
F 0 "R4" H 2018 7146 50  0000 L CNN
F 1 "100k" H 2018 7055 50  0000 L CNN
F 2 "Resistor_SMD:R_0603_1608Metric_Pad1.05x0.95mm_HandSolder" V 1990 7090 50  0001 C CNN
F 3 "~" H 1950 7100 50  0001 C CNN
	1    1950 7100
	1    0    0    -1  
$EndComp
$Comp
L Transistor_FET:Si2319CDS Q1
U 1 1 5E0E219B
P 2550 6500
F 0 "Q1" H 2756 6546 50  0000 L CNN
F 1 "Si2319CDS" H 2756 6455 50  0000 L CNN
F 2 "Package_TO_SOT_SMD:SOT-23" H 2750 6425 50  0001 L CIN
F 3 "http://www.vishay.com/docs/66709/si2319cd.pdf" H 2550 6500 50  0001 L CNN
	1    2550 6500
	1    0    0    -1  
$EndComp
$Comp
L Device:R_US R5
U 1 1 5E0BD379
P 2650 7100
F 0 "R5" H 2718 7146 50  0000 L CNN
F 1 "100k" H 2718 7055 50  0000 L CNN
F 2 "Resistor_SMD:R_0603_1608Metric_Pad1.05x0.95mm_HandSolder" V 2690 7090 50  0001 C CNN
F 3 "~" H 2650 7100 50  0001 C CNN
	1    2650 7100
	1    0    0    -1  
$EndComp
$Comp
L power:GND #PWR0109
U 1 1 5E0F0740
P 1950 7450
F 0 "#PWR0109" H 1950 7200 50  0001 C CNN
F 1 "GND" H 1955 7277 50  0000 C CNN
F 2 "" H 1950 7450 50  0001 C CNN
F 3 "" H 1950 7450 50  0001 C CNN
	1    1950 7450
	1    0    0    -1  
$EndComp
$Comp
L Device:C C6
U 1 1 5E0C02FB
P 4300 6950
F 0 "C6" H 4415 6996 50  0000 L CNN
F 1 "10uf" H 4415 6905 50  0000 L CNN
F 2 "Capacitor_SMD:C_0603_1608Metric_Pad1.05x0.95mm_HandSolder" H 4338 6800 50  0001 C CNN
F 3 "~" H 4300 6950 50  0001 C CNN
	1    4300 6950
	1    0    0    -1  
$EndComp
$Comp
L power:GND #PWR0108
U 1 1 5E0D4686
P 2450 7450
F 0 "#PWR0108" H 2450 7200 50  0001 C CNN
F 1 "GND" H 2455 7277 50  0000 C CNN
F 2 "" H 2450 7450 50  0001 C CNN
F 3 "" H 2450 7450 50  0001 C CNN
	1    2450 7450
	1    0    0    -1  
$EndComp
$Comp
L Device:C C2
U 1 1 5E0D2EB6
P 2450 7100
F 0 "C2" H 2565 7146 50  0000 L CNN
F 1 "10uf" H 2565 7055 50  0000 L CNN
F 2 "Capacitor_SMD:C_0603_1608Metric_Pad1.05x0.95mm_HandSolder" H 2488 6950 50  0001 C CNN
F 3 "~" H 2450 7100 50  0001 C CNN
	1    2450 7100
	1    0    0    -1  
$EndComp
$Comp
L power:GND #PWR0103
U 1 1 5E0BFC06
P 4100 7450
F 0 "#PWR0103" H 4100 7200 50  0001 C CNN
F 1 "GND" H 4105 7277 50  0000 C CNN
F 2 "" H 4100 7450 50  0001 C CNN
F 3 "" H 4100 7450 50  0001 C CNN
	1    4100 7450
	1    0    0    -1  
$EndComp
$Comp
L power:VBUS #PWR0102
U 1 1 5E0BCCD7
P 1950 6250
F 0 "#PWR0102" H 1950 6100 50  0001 C CNN
F 1 "VBUS" H 1965 6423 50  0000 C CNN
F 2 "" H 1950 6250 50  0001 C CNN
F 3 "" H 1950 6250 50  0001 C CNN
	1    1950 6250
	1    0    0    -1  
$EndComp
$Comp
L gowandv2-rescue_ap2112k-3.3trg1:gowandv2-rescue_AP2112K-3.3TRG1-AP2112K-3.3TRG1 U4
U 1 1 5E0B0717
P 3600 6950
F 0 "U4" H 3600 7420 50  0000 C CNN
F 1 "AP2112K-3.3TRG1" H 3600 7329 50  0000 C CNN
F 2 "Package_TO_SOT_SMD:SOT-23-5_HandSoldering" H 3600 6950 50  0001 L BNN
F 3 "" H 3600 6950 50  0001 L BNN
F 4 "SOT-753 Diodes Inc." H 3600 6950 50  0001 L BNN "Field4"
F 5 "AP2112K-3.3TRG1" H 3600 6950 50  0001 L BNN "Field5"
F 6 "AP2112 Series 0.6 A 3.3 V Fixed Output SMT LDO Linear Regulator - SOT23-5" H 3600 6950 50  0001 L BNN "Field6"
F 7 "Diodes Inc." H 3600 6950 50  0001 L BNN "Field7"
F 8 "None" H 3600 6950 50  0001 L BNN "Field8"
	1    3600 6950
	1    0    0    -1  
$EndComp
$Comp
L Device:C C1
U 1 1 5E0FC185
P 2050 1750
F 0 "C1" H 2165 1704 50  0000 L CNN
F 1 "0.01uf" H 2165 1795 50  0000 L CNN
F 2 "Capacitor_SMD:C_0603_1608Metric_Pad1.05x0.95mm_HandSolder" H 2088 1600 50  0001 C CNN
F 3 "~" H 2050 1750 50  0001 C CNN
	1    2050 1750
	-1   0    0    1   
$EndComp
Text GLabel 10150 3450 2    50   Input ~ 0
IN_MOTOR
Text GLabel 10150 4250 2    50   Input ~ 0
NFC_CLK
Text GLabel 10150 4050 2    50   Input ~ 0
NFC_3.3V_CONTROL
Text GLabel -1200 4450 0    50   Input ~ 0
NFC_CLK
Text GLabel -1200 4350 0    50   Input ~ 0
NFC_MISO
Text GLabel -1200 4250 0    50   Input ~ 0
NFC_MOSI
Text GLabel -1200 4150 0    50   Input ~ 0
NFC_CS
Text GLabel -700 4150 2    50   Input ~ 0
NFC_RTS
Text GLabel -700 4050 2    50   Input ~ 0
NFC_3.3V
Text GLabel 4150 4200 2    50   Input ~ 0
GND
$Comp
L Connector_Generic:Conn_02x05_Odd_Even J3
U 1 1 5E4B9362
P -1000 4250
F 0 "J3" H -950 4667 50  0000 C CNN
F 1 "Conn_02x05_Counter_Clockwise" H -950 4576 50  0000 C CNN
F 2 "Connector_PinHeader_2.00mm:PinHeader_2x05_P2.00mm_Vertical" H -1000 4250 50  0001 C CNN
F 3 "~" H -1000 4250 50  0001 C CNN
	1    -1000 4250
	1    0    0    -1  
$EndComp
Text GLabel -1200 4050 0    50   Input ~ 0
GND
Text GLabel -700 4450 2    50   Input ~ 0
3.3V
Text GLabel -700 4350 2    50   Input ~ 0
DIN_WS2812B
Text GLabel -700 4250 2    50   Input ~ 0
GND
$Comp
L Motor:Motor_DC M2
U 1 1 5E7D79FE
P 6300 3800
F 0 "M2" V 6005 3750 50  0000 C CNN
F 1 "Motor_DC" V 6096 3750 50  0000 C CNN
F 2 "Diode_SMD:D_1210_3225Metric_Castellated" H 6300 3710 50  0001 C CNN
F 3 "~" H 6300 3710 50  0001 C CNN
	1    6300 3800
	0    1    1    0   
$EndComp
Wire Wire Line
	6000 3800 5950 3800
Wire Wire Line
	5950 3800 5950 4100
Wire Wire Line
	6500 3800 6500 4100
Wire Notes Line
	-2000 4000 -2000 8000
Wire Notes Line
	-2000 8000 -6500 8000
Wire Notes Line
	-6500 8000 -6500 4000
Wire Notes Line
	-6500 4000 -2000 4000
$Comp
L Connector_Generic:Conn_01x05 J10
U 1 1 5E9A6E1C
P 6050 7050
F 0 "J10" H 6130 7092 50  0000 L CNN
F 1 "Switch_power_battery" H 6130 7001 50  0000 L CNN
F 2 "Connector_PinHeader_2.54mm:PinHeader_1x05_P2.54mm_Horizontal_VUONG" H 6050 7050 50  0001 C CNN
F 3 "~" H 6050 7050 50  0001 C CNN
	1    6050 7050
	1    0    0    -1  
$EndComp
Wire Wire Line
	3550 5250 3550 5550
$Comp
L Device:R_US R7
U 1 1 5E0D0F2E
P 3300 4400
F 0 "R7" H 3368 4354 50  0000 L CNN
F 1 "470r" H 3368 4445 50  0000 L CNN
F 2 "Resistor_SMD:R_0603_1608Metric_Pad1.05x0.95mm_HandSolder" V 3340 4390 50  0001 C CNN
F 3 "~" H 3300 4400 50  0001 C CNN
	1    3300 4400
	-1   0    0    1   
$EndComp
$Comp
L power:VBUS #PWR0105
U 1 1 5E0CCC36
P 3300 4250
F 0 "#PWR0105" H 3300 4100 50  0001 C CNN
F 1 "VBUS" H 3315 4423 50  0000 C CNN
F 2 "" H 3300 4250 50  0001 C CNN
F 3 "" H 3300 4250 50  0001 C CNN
	1    3300 4250
	1    0    0    -1  
$EndComp
Wire Wire Line
	3300 4550 3550 4550
$Comp
L Device:LED D3
U 1 1 5E0C48CC
P 3550 4700
F 0 "D3" V 3589 4583 50  0000 R CNN
F 1 "LED_FULL" V 3498 4583 50  0000 R CNN
F 2 "LED_SMD:LED_0603_1608Metric_Pad1.05x0.95mm_HandSolder" H 3550 4700 50  0001 C CNN
F 3 "~" H 3550 4700 50  0001 C CNN
	1    3550 4700
	0    -1   -1   0   
$EndComp
Wire Wire Line
	2850 4950 2850 5050
Wire Wire Line
	2450 5050 2850 5050
Connection ~ 2850 5050
Wire Wire Line
	2850 5050 2950 5050
Wire Wire Line
	2850 4650 2850 4550
Connection ~ 3300 4550
Wire Wire Line
	2850 4550 3300 4550
$Comp
L Device:R_US R6
U 1 1 5E195F4A
P 3100 5050
F 0 "R6" V 2895 5050 50  0000 C CNN
F 1 "220r" V 2986 5050 50  0000 C CNN
F 2 "Resistor_SMD:R_0603_1608Metric_Pad1.05x0.95mm_HandSolder" V 3140 5040 50  0001 C CNN
F 3 "~" H 3100 5050 50  0001 C CNN
	1    3100 5050
	0    1    1    0   
$EndComp
$Comp
L Device:LED D2
U 1 1 5E0D0688
P 2850 4800
F 0 "D2" V 2889 4683 50  0000 R CNN
F 1 "LED_CHARGING" V 2798 4683 50  0000 R CNN
F 2 "LED_SMD:LED_0603_1608Metric_Pad1.05x0.95mm_HandSolder" H 2850 4800 50  0001 C CNN
F 3 "~" H 2850 4800 50  0001 C CNN
	1    2850 4800
	0    -1   -1   0   
$EndComp
Text GLabel 5850 7050 0    50   Input ~ 0
V_IN
Text Notes 2300 4300 0    50   ~ 0
Thieu tu cho nay
Text Notes 2750 5950 0    50   ~ 0
Lay nguon VBUS cap cho nrf de lay led ching lam led tin hieu pin?
Text GLabel 10300 5850 1    50   Input ~ 0
3.3V
Text GLabel 10300 6350 2    50   Input ~ 0
NFC_3.3V
Text Notes 9700 6450 0    50   ~ 0
Sai cho nay chan so 2 len vcc
Text GLabel 10150 3150 2    50   Input ~ 0
I2S_CKL_NO_USE
Text GLabel 2650 6250 1    50   Input ~ 0
VBAT
$Comp
L Diode:BAT60A D1
U 1 1 5E0D4E4E
P 2250 6750
F 0 "D1" H 2250 6534 50  0000 C CNN
F 1 "B5819W" H 2250 6625 50  0000 C CNN
F 2 "Diode_SMD:D_SOD-323" H 2250 6575 50  0001 C CNN
F 3 "https://www.infineon.com/dgdl/Infineon-BAT60ASERIES-DS-v01_01-en.pdf?fileId=db3a304313d846880113def70c9304a9" H 2250 6750 50  0001 C CNN
	1    2250 6750
	-1   0    0    1   
$EndComp
$Comp
L Transistor_BJT:MMBT3904 Q4
U 1 1 5E248EBE
P 5650 5350
F 0 "Q4" H 5841 5396 50  0000 L CNN
F 1 "MMBT2222" H 5841 5305 50  0000 L CNN
F 2 "Package_TO_SOT_SMD:SOT-23" H 5850 5275 50  0001 L CIN
F 3 "https://www.fairchildsemi.com/datasheets/2N/2N3904.pdf" H 5650 5350 50  0001 L CNN
	1    5650 5350
	1    0    0    -1  
$EndComp
$Comp
L Transistor_BJT:MMBT3904 Q3
U 1 1 5E24A721
P 5650 4350
F 0 "Q3" H 5841 4396 50  0000 L CNN
F 1 "MMBT2222" H 5841 4305 50  0000 L CNN
F 2 "Package_TO_SOT_SMD:SOT-23" H 5850 4275 50  0001 L CIN
F 3 "https://www.fairchildsemi.com/datasheets/2N/2N3904.pdf" H 5650 4350 50  0001 L CNN
	1    5650 4350
	1    0    0    -1  
$EndComp
Connection ~ 5750 5150
$Comp
L Transistor_BJT:MMBT3904 Q2
U 1 1 5E42EF29
P 3450 5050
F 0 "Q2" H 3641 5096 50  0000 L CNN
F 1 "MMBT2222" H 3641 5005 50  0000 L CNN
F 2 "Package_TO_SOT_SMD:SOT-23" H 3650 4975 50  0001 L CIN
F 3 "https://www.fairchildsemi.com/datasheets/2N/2N3904.pdf" H 3450 5050 50  0001 L CNN
	1    3450 5050
	1    0    0    -1  
$EndComp
Text GLabel 4650 2350 1    50   Input ~ 0
3.3V
Wire Wire Line
	6350 6100 6350 6050
Wire Wire Line
	6350 6050 6700 6050
$Comp
L power:GND #PWR0119
U 1 1 5E5758D6
P 4100 1300
F 0 "#PWR0119" H 4100 1050 50  0001 C CNN
F 1 "GND" H 4105 1127 50  0000 C CNN
F 2 "" H 4100 1300 50  0001 C CNN
F 3 "" H 4100 1300 50  0001 C CNN
	1    4100 1300
	1    0    0    -1  
$EndComp
Wire Wire Line
	4100 1300 4100 1250
Wire Wire Line
	4100 1250 4600 1250
$EndSCHEMATC
